…
``` r
setdiff(systembolaget_new, systembolaget_old)
```

    ## # A tibble: 1,922 x 30
    ##        nr Artikelid Varnummer Namn  Namn2 Prisinklmoms Volymiml
    ##     <int>     <int>     <int> <chr> <chr>        <dbl>    <dbl>
    ##  1 7.04e6   1006376     70436 Sain… Doma…          329      750
    ##  2 8.28e6     10066     82831 Doma… Gigo…          216      750
    ##  3 7.30e6   1007984     72993 Doma… Poin…          179      750
    ##  4 7.45e6   1008900     74461 Preu… Cabe…          115      750
    ##  5 7.56e6   1010813     75613 Rånä… Rico…          129      750
    ##  6 7.03e6   1012235     70333 Muro… Alva…          199      750
    ##  7 9.61e6  10122356     96142 Cape… Marq…          189      750
    ##  8 9.58e6  10122436     95790 Marq… Gran…          299      750
    ##  9 9.61e6  10134240     96145 Lioc… Char…          349      750
    ## 10 9.55e6  10134308     95463 LIOC… Save…          495      750
    ## # ... with 1,912 more rows, and 23 more variables: PrisPerLiter <dbl>,
    ## #   Saljstart <date>, Utgått <int>, Varugrupp <chr>, Typ <chr>,
    ## #   Stil <chr>, Forpackning <chr>, Forslutning <chr>, Ursprung <chr>,
    ## #   Ursprunglandnamn <chr>, Producent <chr>, Leverantor <chr>,
    ## #   Argang <int>, Provadargang <chr>, Alkoholhalt <chr>, Sortiment <chr>,
    ## #   SortimentText <chr>, Ekologisk <int>, Etiskt <int>, Koscher <int>,
    ## #   RavarorBeskrivning <chr>, Pant <dbl>, EtisktEtikett <chr>

``` r
setdiff(systembolaget_old, systembolaget_new)
```

    ## # A tibble: 1,816 x 30
    ##        nr Artikelid Varnummer Namn  Namn2 Prisinklmoms Volymiml
    ##     <int>     <int>     <int> <chr> <chr>        <dbl>    <dbl>
    ##  1 8.91e6   1000827     89140 Harv… Blac…         25.7      330
    ##  2 7.45e6   1001022     74470 Exce… Rese…        119        750
    ##  3 8.78e6   1004734     87804 Auch… Sele…       1487        700
    ##  4 8.77e6   1004761     87683 Allt… Sele…       1448        700
    ##  5 8.79e6   1004816     87875 Stra… Sing…        856        700
    ##  6 3.07e6   1004940     30677 Södr… <NA>          39.7      330
    ##  7 7.04e6   1006376     70436 Sain… Doma…        329        750
    ##  8 8.28e6     10066     82831 Doma… Gigo…        216        750
    ##  9 7.30e6   1007984     72993 Doma… Poin…        179        750
    ## 10 7.45e6   1008900     74461 Preu… Cabe…        115        750
    ## # ... with 1,806 more rows, and 23 more variables: PrisPerLiter <dbl>,
    ## #   Saljstart <date>, Utgått <int>, Varugrupp <chr>, Typ <chr>,
    ## #   Stil <chr>, Forpackning <chr>, Forslutning <chr>, Ursprung <chr>,
    ## #   Ursprunglandnamn <chr>, Producent <chr>, Leverantor <chr>,
    ## #   Argang <int>, Provadargang <chr>, Alkoholhalt <chr>, Sortiment <chr>,
    ## #   SortimentText <chr>, Ekologisk <int>, Etiskt <int>, Koscher <int>,
    ## #   RavarorBeskrivning <chr>, Pant <dbl>, EtisktEtikett <chr>

``` r
systembolaget_new %>%
  anti_join(systembolaget_old) %>%
  select(Typ) %>%
  unique()
```

    ## # A tibble: 61 x 1
    ##    Typ                
    ##    <chr>              
    ##  1 <NA>               
    ##  2 Fylligt & Smakrikt 
    ##  3 Kryddigt & Mustigt 
    ##  4 Friskt & Fruktigt  
    ##  5 Tequila            
    ##  6 Vitt Torrt         
    ##  7 Fruktigt & Smakrikt
    ##  8 Ljus lager         
    ##  9 Mellanmörk lager   
    ## 10 Brandy             
    ## # ... with 51 more rows

``` r
systembolaget_old %>%
  anti_join(systembolaget_new) %>%
  select(Typ) %>%
  unique()
```

    ## # A tibble: 59 x 1
    ##    Typ                         
    ##    <chr>                       
    ##  1 Ale brittisk-amerikansk stil
    ##  2 <NA>                        
    ##  3 Maltwhisky                  
    ##  4 Grainwhisky                 
    ##  5 Porter och stout            
    ##  6 Friskt & Fruktigt           
    ##  7 Kryddigt & Mustigt          
    ##  8 Ale oklassificerat          
    ##  9 Ljus lager                  
    ## 10 Tequila                     
    ## # ... with 49 more rows
…
