…
How many beverages are there in each group of products (Varugrupp)? Use filter and is.na to filter out beverages where Varugrupp is not available.

``` r
Sortiment_hela %>%
  group_by(Varugrupp) %>%
  summarize(number = n()) %>%
  filter(!is.na(Varugrupp))
```

    ## # A tibble: 45 x 2
    ##    Varugrupp                    number
    ##    <chr>                         <int>
    ##  1 Akvavit och Kryddat brännvin    216
    ##  2 Alkoholfritt                    101
    ##  3 Anissprit                        28
    ##  4 Aperitif                         27
    ##  5 Armagnac och Brandy              87
    ##  6 Bitter                           52
    ##  7 Blå mousserande                   4
    ##  8 Blå stilla                        3
    ##  9 Blanddrycker                     55
    ## 10 Calvados                         72
    ## # ... with 35 more rows
…
List the cheapest beverage (by PrisPerLiter) in each Varugrupp.

``` r
Sortiment_hela %>%
  group_by(Varugrupp) %>%
  summarize(min_bev = min(PrisPerLiter, na.rm = TRUE))
```

    ## # A tibble: 45 x 2
    ##    Varugrupp                    min_bev
    ##    <chr>                          <dbl>
    ##  1 Akvavit och Kryddat brännvin   313. 
    ##  2 Alkoholfritt                    16  
    ##  3 Anissprit                      389. 
    ##  4 Aperitif                        78.7
    ##  5 Armagnac och Brandy            299. 
    ##  6 Bitter                         290  
    ##  7 Blå mousserande                 78.7
    ##  8 Blå stilla                     119. 
    ##  9 Blanddrycker                    30  
    ## 10 Calvados                       418  
    ## # ... with 35 more rows
