…
    ## Warning: Expected 3 pieces. Additional pieces discarded in 693 rows [13,
    ## 14, 15, 16, 17, 18, 19, 20, 21, 22, 23, 25, 26, 27, 28, 29, 30, 31, 32,
    ## 33, ...].

    ## Warning: Expected 3 pieces. Missing pieces filled with `NA` in 21 rows [12,
    ## 60, 108, 156, 204, 252, 300, 348, 396, 444, 492, 540, 588, 636, 684, 732,
    ## 780, 828, 876, 924, ...].

    ## Warning in evalq(as.numeric(Antal_hushåll), <environment>): NAs introduced
    ## by coercion

    ## Warning in evalq(as.numeric(Utbetalt_ekonomiskt_bistånd_tkr),
    ## <environment>): NAs introduced by coercion

    ## # A tibble: 1,008 x 6
    ##    X1_Region   Year  Month   Antal_hushåll Utbetalt_ekonomiskt_bi… average
    ##    <chr>       <chr> <chr>           <dbl>                   <dbl>   <dbl>
    ##  1 Blekinge l… 2014  Februa…          1656                   11392    6.88
    ##  2 Blekinge l… 2014  Novemb…          1631                   10802    6.62
    ##  3 Blekinge l… 2014  Decemb…          1598                   10858    6.79
    ##  4 Blekinge l… 2014  Mars             1626                   10912    6.71
    ##  5 Blekinge l… 2014  April            1624                   10930    6.73
    ##  6 Blekinge l… 2014  Maj              1630                   10862    6.66
    ##  7 Blekinge l… 2014  Juni             1692                   11477    6.78
    ##  8 Blekinge l… 2014  Juli             1617                   10946    6.77
    ##  9 Blekinge l… 2014  Augusti          1602                   10708    6.68
    ## 10 Blekinge l… 2014  Septem…          1523                   10288    6.76
    ## # ... with 998 more rows
…
